4101316
4105105
4108101
4112512
4116738
4119027
4121361
4125240
4133511
4135350
4142267
4158726
4159170
4163639
4175837
4177856
4182393
4189200
4189998
4190495
4193278
4194218
4194891
G1
